[
    {
        "_id": "6620cc376934b6635c6cfe56",
        "applicationId": "uieditor-7582",
        "organizationId": "Org",
        "pluginType": "API",
        "pluginId": "API",
        "Action": {
            "name": "Api1",
            "datasource": {
                "name": "DEFAULT_REST_DATASOURCE",
                "datasourceConfiguration": {
                    "url": "https://nodered-8542-6620bfbd702e39120000010f.ubos.tech"
                },
                "invalids": [],
                "isValid": true,
                "pluginId": "API",
                "messages": []
            },
            "executeOnLoad": false,
            "pageId": "home",
            "actionConfiguration": {
                "timeoutInMillisecond": 10000,
                "encodeParamsToggle": true,
                "httpMethod": "GET",
                "headers": [],
                "queryParameters": [],
                "bodyFormData": [],
                "formData": {
                    "apiContentType": "none"
                },
                "pluginSpecifiedTemplates": [
                    {
                        "value": true
                    }
                ],
                "path": "/hello"
            },
            "dynamicBindingPathList": [],
            "isValid": true,
            "invalids": [],
            "jsonPathKeys": [],
            "userSetOnLoad": false,
            "confirmBeforeExecute": false
        },
        "createdAt": "2024-04-18T07:31:03.200Z",
        "updatedAt": "2024-04-18T07:54:37.686Z",
        "deleted": false,
        "policies": [
            {
                "permission": "read:actions",
                "groups": [],
                "users": []
            },
            {
                "permission": "manage:actions",
                "groups": [],
                "users": []
            },
            {
                "permission": "execute:actions",
                "groups": [],
                "users": []
            }
        ]
    }
]